Analysis & Synthesis report for Secuencial
Mon Jul 20 09:31:10 2020
Quartus Prime Version 18.1.0 Build 625 09/12/2018 SJ Lite Edition


---------------------
; Table of Contents ;
---------------------
  1. Legal Notice
  2. Analysis & Synthesis Summary
  3. Analysis & Synthesis Settings
  4. Parallel Compilation
  5. Analysis & Synthesis Source Files Read
  6. Analysis & Synthesis Resource Usage Summary
  7. Analysis & Synthesis Resource Utilization by Entity
  8. Registers Removed During Synthesis
  9. General Register Statistics
 10. Parameter Settings for User Entity Instance: Top-level Entity: |main_processor_5
 11. Parameter Settings for User Entity Instance: LPM_FF:REG_w
 12. Parameter Settings for User Entity Instance: LPM_FF:REG_D
 13. Parameter Settings for User Entity Instance: LPM_FF:REG_S
 14. Parameter Settings for User Entity Instance: LPM_SHIFTREG:REG_Q
 15. Parameter Settings for User Entity Instance: LPM_FF:REG_R
 16. Parameter Settings for User Entity Instance: LPM_ADD_SUB:ALU
 17. Parameter Settings for User Entity Instance: LPM_ADD_SUB:ALU2
 18. Parameter Settings for User Entity Instance: LPM_ADD_SUB:ALU3
 19. Parameter Settings for User Entity Instance: LPM_ADD_SUB:ALU4
 20. Parameter Settings for User Entity Instance: LPM_ADD_SUB:ALU5
 21. Parameter Settings for User Entity Instance: LPM_ADD_SUB:ALU6
 22. Parameter Settings for User Entity Instance: LPM_ADD_SUB:ALU7
 23. Parameter Settings for User Entity Instance: LPM_ADD_SUB:ALU8
 24. lpm_shiftreg Parameter Settings by Entity Instance
 25. Post-Synthesis Netlist Statistics for Top Partition
 26. Elapsed Time Per Partition
 27. Analysis & Synthesis Messages



----------------
; Legal Notice ;
----------------
Copyright (C) 2018  Intel Corporation. All rights reserved.
Your use of Intel Corporation's design tools, logic functions 
and other software and tools, and its AMPP partner logic 
functions, and any output files from any of the foregoing 
(including device programming or simulation files), and any 
associated documentation or information are expressly subject 
to the terms and conditions of the Intel Program License 
Subscription Agreement, the Intel Quartus Prime License Agreement,
the Intel FPGA IP License Agreement, or other applicable license
agreement, including, without limitation, that your use is for
the sole purpose of programming logic devices manufactured by
Intel and sold by Intel or its authorized distributors.  Please
refer to the applicable agreement for further details.



+-------------------------------------------------------------------------------+
; Analysis & Synthesis Summary                                                  ;
+---------------------------------+---------------------------------------------+
; Analysis & Synthesis Status     ; Successful - Mon Jul 20 09:31:09 2020       ;
; Quartus Prime Version           ; 18.1.0 Build 625 09/12/2018 SJ Lite Edition ;
; Revision Name                   ; Secuencial                                  ;
; Top-level Entity Name           ; main_processor_5                            ;
; Family                          ; Cyclone V                                   ;
; Logic utilization (in ALMs)     ; N/A                                         ;
; Total registers                 ; 2104                                        ;
; Total pins                      ; 435                                         ;
; Total virtual pins              ; 0                                           ;
; Total block memory bits         ; 0                                           ;
; Total DSP Blocks                ; 0                                           ;
; Total HSSI RX PCSs              ; 0                                           ;
; Total HSSI PMA RX Deserializers ; 0                                           ;
; Total HSSI TX PCSs              ; 0                                           ;
; Total HSSI PMA TX Serializers   ; 0                                           ;
; Total PLLs                      ; 0                                           ;
; Total DLLs                      ; 0                                           ;
+---------------------------------+---------------------------------------------+


+---------------------------------------------------------------------------------------------------------------------------+
; Analysis & Synthesis Settings                                                                                             ;
+---------------------------------------------------------------------------------+--------------------+--------------------+
; Option                                                                          ; Setting            ; Default Value      ;
+---------------------------------------------------------------------------------+--------------------+--------------------+
; Device                                                                          ; 5CGXFC7D6F31A7     ;                    ;
; Top-level entity name                                                           ; main_processor_5   ; Secuencial         ;
; Family name                                                                     ; Cyclone V          ; Cyclone V          ;
; Use smart compilation                                                           ; Off                ; Off                ;
; Enable parallel Assembler and Timing Analyzer during compilation                ; On                 ; On                 ;
; Enable compact report table                                                     ; Off                ; Off                ;
; Restructure Multiplexers                                                        ; Auto               ; Auto               ;
; MLAB Add Timing Constraints For Mixed-Port Feed-Through Mode Setting Don't Care ; Off                ; Off                ;
; Create Debugging Nodes for IP Cores                                             ; Off                ; Off                ;
; Preserve fewer node names                                                       ; On                 ; On                 ;
; Intel FPGA IP Evaluation Mode                                                   ; Enable             ; Enable             ;
; Verilog Version                                                                 ; Verilog_2001       ; Verilog_2001       ;
; VHDL Version                                                                    ; VHDL_1993          ; VHDL_1993          ;
; State Machine Processing                                                        ; Auto               ; Auto               ;
; Safe State Machine                                                              ; Off                ; Off                ;
; Extract Verilog State Machines                                                  ; On                 ; On                 ;
; Extract VHDL State Machines                                                     ; On                 ; On                 ;
; Ignore Verilog initial constructs                                               ; Off                ; Off                ;
; Iteration limit for constant Verilog loops                                      ; 5000               ; 5000               ;
; Iteration limit for non-constant Verilog loops                                  ; 250                ; 250                ;
; Add Pass-Through Logic to Inferred RAMs                                         ; On                 ; On                 ;
; Infer RAMs from Raw Logic                                                       ; On                 ; On                 ;
; Parallel Synthesis                                                              ; On                 ; On                 ;
; DSP Block Balancing                                                             ; Auto               ; Auto               ;
; NOT Gate Push-Back                                                              ; On                 ; On                 ;
; Power-Up Don't Care                                                             ; On                 ; On                 ;
; Remove Redundant Logic Cells                                                    ; Off                ; Off                ;
; Remove Duplicate Registers                                                      ; On                 ; On                 ;
; Ignore CARRY Buffers                                                            ; Off                ; Off                ;
; Ignore CASCADE Buffers                                                          ; Off                ; Off                ;
; Ignore GLOBAL Buffers                                                           ; Off                ; Off                ;
; Ignore ROW GLOBAL Buffers                                                       ; Off                ; Off                ;
; Ignore LCELL Buffers                                                            ; Off                ; Off                ;
; Ignore SOFT Buffers                                                             ; On                 ; On                 ;
; Limit AHDL Integers to 32 Bits                                                  ; Off                ; Off                ;
; Optimization Technique                                                          ; Balanced           ; Balanced           ;
; Carry Chain Length                                                              ; 70                 ; 70                 ;
; Auto Carry Chains                                                               ; On                 ; On                 ;
; Auto Open-Drain Pins                                                            ; On                 ; On                 ;
; Perform WYSIWYG Primitive Resynthesis                                           ; Off                ; Off                ;
; Auto ROM Replacement                                                            ; On                 ; On                 ;
; Auto RAM Replacement                                                            ; On                 ; On                 ;
; Auto DSP Block Replacement                                                      ; On                 ; On                 ;
; Auto Shift Register Replacement                                                 ; Auto               ; Auto               ;
; Allow Shift Register Merging across Hierarchies                                 ; Auto               ; Auto               ;
; Auto Clock Enable Replacement                                                   ; On                 ; On                 ;
; Strict RAM Replacement                                                          ; Off                ; Off                ;
; Allow Synchronous Control Signals                                               ; On                 ; On                 ;
; Force Use of Synchronous Clear Signals                                          ; Off                ; Off                ;
; Auto Resource Sharing                                                           ; Off                ; Off                ;
; Allow Any RAM Size For Recognition                                              ; Off                ; Off                ;
; Allow Any ROM Size For Recognition                                              ; Off                ; Off                ;
; Allow Any Shift Register Size For Recognition                                   ; Off                ; Off                ;
; Use LogicLock Constraints during Resource Balancing                             ; On                 ; On                 ;
; Ignore translate_off and synthesis_off directives                               ; Off                ; Off                ;
; Timing-Driven Synthesis                                                         ; On                 ; On                 ;
; Report Parameter Settings                                                       ; On                 ; On                 ;
; Report Source Assignments                                                       ; On                 ; On                 ;
; Report Connectivity Checks                                                      ; On                 ; On                 ;
; Ignore Maximum Fan-Out Assignments                                              ; Off                ; Off                ;
; Synchronization Register Chain Length                                           ; 3                  ; 3                  ;
; Power Optimization During Synthesis                                             ; Normal compilation ; Normal compilation ;
; HDL message level                                                               ; Level2             ; Level2             ;
; Suppress Register Optimization Related Messages                                 ; Off                ; Off                ;
; Number of Removed Registers Reported in Synthesis Report                        ; 5000               ; 5000               ;
; Number of Swept Nodes Reported in Synthesis Report                              ; 5000               ; 5000               ;
; Number of Inverted Registers Reported in Synthesis Report                       ; 100                ; 100                ;
; Clock MUX Protection                                                            ; On                 ; On                 ;
; Auto Gated Clock Conversion                                                     ; Off                ; Off                ;
; Block Design Naming                                                             ; Auto               ; Auto               ;
; SDC constraint protection                                                       ; Off                ; Off                ;
; Synthesis Effort                                                                ; Auto               ; Auto               ;
; Shift Register Replacement - Allow Asynchronous Clear Signal                    ; On                 ; On                 ;
; Pre-Mapping Resynthesis Optimization                                            ; Off                ; Off                ;
; Analysis & Synthesis Message Level                                              ; Medium             ; Medium             ;
; Disable Register Merging Across Hierarchies                                     ; Auto               ; Auto               ;
; Resource Aware Inference For Block RAM                                          ; On                 ; On                 ;
; Automatic Parallel Synthesis                                                    ; On                 ; On                 ;
; Partial Reconfiguration Bitstream ID                                            ; Off                ; Off                ;
+---------------------------------------------------------------------------------+--------------------+--------------------+


+------------------------------------------+
; Parallel Compilation                     ;
+----------------------------+-------------+
; Processors                 ; Number      ;
+----------------------------+-------------+
; Number detected on machine ; 8           ;
; Maximum allowed            ; 8           ;
;                            ;             ;
; Average used               ; 1.00        ;
; Maximum used               ; 8           ;
;                            ;             ;
; Usage by Processor         ; % Time Used ;
;     Processor 1            ; 100.0%      ;
;     Processor 2            ;   0.0%      ;
;     Processor 3            ;   0.0%      ;
;     Processor 4            ;   0.0%      ;
;     Processor 5            ;   0.0%      ;
;     Processor 6            ;   0.0%      ;
;     Processors 7-8         ;   0.0%      ;
+----------------------------+-------------+


+-------------------------------------------------------------------------------------------------------------------------------------------------------------------------+
; Analysis & Synthesis Source Files Read                                                                                                                                  ;
+----------------------------------+-----------------+------------------------------+---------------------------------------------------------------------------+---------+
; File Name with User-Entered Path ; Used in Netlist ; File Type                    ; File Name with Absolute Path                                              ; Library ;
+----------------------------------+-----------------+------------------------------+---------------------------------------------------------------------------+---------+
; main_processor_5.vhd             ; yes             ; User VHDL File               ; D:/Uni/Monitoria/R3/Paper/Secuencial/main_processor_5.vhd                 ;         ;
; lpm_ff.tdf                       ; yes             ; Megafunction                 ; d:/intelfpga/18.1/quartus/libraries/megafunctions/lpm_ff.tdf              ;         ;
; lpm_constant.inc                 ; yes             ; Megafunction                 ; d:/intelfpga/18.1/quartus/libraries/megafunctions/lpm_constant.inc        ;         ;
; aglobal181.inc                   ; yes             ; Megafunction                 ; d:/intelfpga/18.1/quartus/libraries/megafunctions/aglobal181.inc          ;         ;
; lpm_shiftreg.tdf                 ; yes             ; Megafunction                 ; d:/intelfpga/18.1/quartus/libraries/megafunctions/lpm_shiftreg.tdf        ;         ;
; dffeea.inc                       ; yes             ; Megafunction                 ; d:/intelfpga/18.1/quartus/libraries/megafunctions/dffeea.inc              ;         ;
; lpm_add_sub.tdf                  ; yes             ; Megafunction                 ; d:/intelfpga/18.1/quartus/libraries/megafunctions/lpm_add_sub.tdf         ;         ;
; addcore.inc                      ; yes             ; Megafunction                 ; d:/intelfpga/18.1/quartus/libraries/megafunctions/addcore.inc             ;         ;
; look_add.inc                     ; yes             ; Megafunction                 ; d:/intelfpga/18.1/quartus/libraries/megafunctions/look_add.inc            ;         ;
; bypassff.inc                     ; yes             ; Megafunction                 ; d:/intelfpga/18.1/quartus/libraries/megafunctions/bypassff.inc            ;         ;
; altshift.inc                     ; yes             ; Megafunction                 ; d:/intelfpga/18.1/quartus/libraries/megafunctions/altshift.inc            ;         ;
; alt_stratix_add_sub.inc          ; yes             ; Megafunction                 ; d:/intelfpga/18.1/quartus/libraries/megafunctions/alt_stratix_add_sub.inc ;         ;
; db/add_sub_tke.tdf               ; yes             ; Auto-Generated Megafunction  ; D:/Uni/Monitoria/R3/Paper/Secuencial/db/add_sub_tke.tdf                   ;         ;
; db/add_sub_0le.tdf               ; yes             ; Auto-Generated Megafunction  ; D:/Uni/Monitoria/R3/Paper/Secuencial/db/add_sub_0le.tdf                   ;         ;
; db/add_sub_fcf.tdf               ; yes             ; Auto-Generated Megafunction  ; D:/Uni/Monitoria/R3/Paper/Secuencial/db/add_sub_fcf.tdf                   ;         ;
+----------------------------------+-----------------+------------------------------+---------------------------------------------------------------------------+---------+


+---------------------------------------------------------+
; Analysis & Synthesis Resource Usage Summary             ;
+---------------------------------------------+-----------+
; Resource                                    ; Usage     ;
+---------------------------------------------+-----------+
; Estimate of Logic utilization (ALMs needed) ; 1717      ;
;                                             ;           ;
; Combinational ALUT usage for logic          ; 2902      ;
;     -- 7 input functions                    ; 0         ;
;     -- 6 input functions                    ; 0         ;
;     -- 5 input functions                    ; 0         ;
;     -- 4 input functions                    ; 0         ;
;     -- <=3 input functions                  ; 2902      ;
;                                             ;           ;
; Dedicated logic registers                   ; 2104      ;
;                                             ;           ;
; I/O pins                                    ; 435       ;
;                                             ;           ;
; Total DSP Blocks                            ; 0         ;
;                                             ;           ;
; Maximum fan-out node                        ; CLK~input ;
; Maximum fan-out                             ; 2104      ;
; Total fan-out                               ; 14885     ;
; Average fan-out                             ; 2.53      ;
+---------------------------------------------+-----------+


+-----------------------------------------------------------------------------------------------------------------------------------------------------------------------------------------------------------------------------------------------+
; Analysis & Synthesis Resource Utilization by Entity                                                                                                                                                                                           ;
+------------------------------------+---------------------+---------------------------+-------------------+------------+------+--------------+---------------------------------------------------------------+------------------+--------------+
; Compilation Hierarchy Node         ; Combinational ALUTs ; Dedicated Logic Registers ; Block Memory Bits ; DSP Blocks ; Pins ; Virtual Pins ; Full Hierarchy Name                                           ; Entity Name      ; Library Name ;
+------------------------------------+---------------------+---------------------------+-------------------+------------+------+--------------+---------------------------------------------------------------+------------------+--------------+
; |main_processor_5                  ; 2902 (1459)         ; 2104 (0)                  ; 0                 ; 0          ; 435  ; 0            ; |main_processor_5                                             ; main_processor_5 ; work         ;
;    |lpm_add_sub:ALU4|              ; 474 (0)             ; 0 (0)                     ; 0                 ; 0          ; 0    ; 0            ; |main_processor_5|lpm_add_sub:ALU4                            ; lpm_add_sub      ; work         ;
;       |add_sub_0le:auto_generated| ; 474 (474)           ; 0 (0)                     ; 0                 ; 0          ; 0    ; 0            ; |main_processor_5|lpm_add_sub:ALU4|add_sub_0le:auto_generated ; add_sub_0le      ; work         ;
;    |lpm_add_sub:ALU6|              ; 474 (0)             ; 0 (0)                     ; 0                 ; 0          ; 0    ; 0            ; |main_processor_5|lpm_add_sub:ALU6                            ; lpm_add_sub      ; work         ;
;       |add_sub_tke:auto_generated| ; 474 (474)           ; 0 (0)                     ; 0                 ; 0          ; 0    ; 0            ; |main_processor_5|lpm_add_sub:ALU6|add_sub_tke:auto_generated ; add_sub_tke      ; work         ;
;    |lpm_add_sub:ALU7|              ; 495 (0)             ; 0 (0)                     ; 0                 ; 0          ; 0    ; 0            ; |main_processor_5|lpm_add_sub:ALU7                            ; lpm_add_sub      ; work         ;
;       |add_sub_fcf:auto_generated| ; 495 (495)           ; 0 (0)                     ; 0                 ; 0          ; 0    ; 0            ; |main_processor_5|lpm_add_sub:ALU7|add_sub_fcf:auto_generated ; add_sub_fcf      ; work         ;
;    |lpm_ff:REG_D|                  ; 0 (0)               ; 510 (510)                 ; 0                 ; 0          ; 0    ; 0            ; |main_processor_5|lpm_ff:REG_D                                ; lpm_ff           ; work         ;
;    |lpm_ff:REG_R|                  ; 0 (0)               ; 475 (475)                 ; 0                 ; 0          ; 0    ; 0            ; |main_processor_5|lpm_ff:REG_R                                ; lpm_ff           ; work         ;
;    |lpm_ff:REG_S|                  ; 0 (0)               ; 474 (474)                 ; 0                 ; 0          ; 0    ; 0            ; |main_processor_5|lpm_ff:REG_S                                ; lpm_ff           ; work         ;
;    |lpm_ff:REG_w|                  ; 0 (0)               ; 474 (474)                 ; 0                 ; 0          ; 0    ; 0            ; |main_processor_5|lpm_ff:REG_w                                ; lpm_ff           ; work         ;
;    |lpm_shiftreg:REG_Q|            ; 0 (0)               ; 171 (171)                 ; 0                 ; 0          ; 0    ; 0            ; |main_processor_5|lpm_shiftreg:REG_Q                          ; lpm_shiftreg     ; work         ;
+------------------------------------+---------------------+---------------------------+-------------------+------------+------+--------------+---------------------------------------------------------------+------------------+--------------+
Note: For table entries with two numbers listed, the numbers in parentheses indicate the number of resources of the given type used by the specific entity alone. The numbers listed outside of parentheses indicate the total resources of the given type used by the specific entity and all of its sub-entities in the hierarchy.


+--------------------------------------------------------------------------------+
; Registers Removed During Synthesis                                             ;
+---------------------------------------+----------------------------------------+
; Register name                         ; Reason for Removal                     ;
+---------------------------------------+----------------------------------------+
; lpm_ff:REG_w|dffs[0]                  ; Stuck at GND due to stuck port data_in ;
; lpm_ff:REG_S|dffs[474]                ; Lost fanout                            ;
; Total Number of Removed Registers = 2 ;                                        ;
+---------------------------------------+----------------------------------------+


+------------------------------------------------------+
; General Register Statistics                          ;
+----------------------------------------------+-------+
; Statistic                                    ; Value ;
+----------------------------------------------+-------+
; Total registers                              ; 2104  ;
; Number of registers using Synchronous Clear  ; 171   ;
; Number of registers using Synchronous Load   ; 1933  ;
; Number of registers using Asynchronous Clear ; 0     ;
; Number of registers using Asynchronous Load  ; 0     ;
; Number of registers using Clock Enable       ; 171   ;
; Number of registers using Preset             ; 0     ;
+----------------------------------------------+-------+


+----------------------------------------------------------------------------------+
; Parameter Settings for User Entity Instance: Top-level Entity: |main_processor_5 ;
+----------------+-------+---------------------------------------------------------+
; Parameter Name ; Value ; Type                                                    ;
+----------------+-------+---------------------------------------------------------+
; SA1            ; 475   ; Signed Integer                                          ;
; SR             ; 171   ; Signed Integer                                          ;
; SI             ; 512   ; Signed Integer                                          ;
; AB             ; 1     ; Signed Integer                                          ;
+----------------+-------+---------------------------------------------------------+
Note: In order to hide this table in the UI and the text report file, please set the "Show Parameter Settings in Synthesis Report" option in "Analysis and Synthesis Settings -> More Settings" to "Off".


+-----------------------------------------------------------+
; Parameter Settings for User Entity Instance: LPM_FF:REG_w ;
+------------------------+-----------+----------------------+
; Parameter Name         ; Value     ; Type                 ;
+------------------------+-----------+----------------------+
; LPM_WIDTH              ; 478       ; Signed Integer       ;
; LPM_AVALUE             ; UNUSED    ; Untyped              ;
; LPM_SVALUE             ; UNUSED    ; Untyped              ;
; LPM_FFTYPE             ; DFF       ; Untyped              ;
; DEVICE_FAMILY          ; Cyclone V ; Untyped              ;
; CBXI_PARAMETER         ; NOTHING   ; Untyped              ;
; AUTO_CARRY_CHAINS      ; ON        ; AUTO_CARRY           ;
; IGNORE_CARRY_BUFFERS   ; OFF       ; IGNORE_CARRY         ;
; AUTO_CASCADE_CHAINS    ; ON        ; AUTO_CASCADE         ;
; IGNORE_CASCADE_BUFFERS ; OFF       ; IGNORE_CASCADE       ;
+------------------------+-----------+----------------------+
Note: In order to hide this table in the UI and the text report file, please set the "Show Parameter Settings in Synthesis Report" option in "Analysis and Synthesis Settings -> More Settings" to "Off".


+-----------------------------------------------------------+
; Parameter Settings for User Entity Instance: LPM_FF:REG_D ;
+------------------------+-----------+----------------------+
; Parameter Name         ; Value     ; Type                 ;
+------------------------+-----------+----------------------+
; LPM_WIDTH              ; 510       ; Signed Integer       ;
; LPM_AVALUE             ; UNUSED    ; Untyped              ;
; LPM_SVALUE             ; UNUSED    ; Untyped              ;
; LPM_FFTYPE             ; DFF       ; Untyped              ;
; DEVICE_FAMILY          ; Cyclone V ; Untyped              ;
; CBXI_PARAMETER         ; NOTHING   ; Untyped              ;
; AUTO_CARRY_CHAINS      ; ON        ; AUTO_CARRY           ;
; IGNORE_CARRY_BUFFERS   ; OFF       ; IGNORE_CARRY         ;
; AUTO_CASCADE_CHAINS    ; ON        ; AUTO_CASCADE         ;
; IGNORE_CASCADE_BUFFERS ; OFF       ; IGNORE_CASCADE       ;
+------------------------+-----------+----------------------+
Note: In order to hide this table in the UI and the text report file, please set the "Show Parameter Settings in Synthesis Report" option in "Analysis and Synthesis Settings -> More Settings" to "Off".


+-----------------------------------------------------------+
; Parameter Settings for User Entity Instance: LPM_FF:REG_S ;
+------------------------+-----------+----------------------+
; Parameter Name         ; Value     ; Type                 ;
+------------------------+-----------+----------------------+
; LPM_WIDTH              ; 475       ; Signed Integer       ;
; LPM_AVALUE             ; UNUSED    ; Untyped              ;
; LPM_SVALUE             ; UNUSED    ; Untyped              ;
; LPM_FFTYPE             ; DFF       ; Untyped              ;
; DEVICE_FAMILY          ; Cyclone V ; Untyped              ;
; CBXI_PARAMETER         ; NOTHING   ; Untyped              ;
; AUTO_CARRY_CHAINS      ; ON        ; AUTO_CARRY           ;
; IGNORE_CARRY_BUFFERS   ; OFF       ; IGNORE_CARRY         ;
; AUTO_CASCADE_CHAINS    ; ON        ; AUTO_CASCADE         ;
; IGNORE_CASCADE_BUFFERS ; OFF       ; IGNORE_CASCADE       ;
+------------------------+-----------+----------------------+
Note: In order to hide this table in the UI and the text report file, please set the "Show Parameter Settings in Synthesis Report" option in "Analysis and Synthesis Settings -> More Settings" to "Off".


+-----------------------------------------------------------------+
; Parameter Settings for User Entity Instance: LPM_SHIFTREG:REG_Q ;
+------------------------+-----------+----------------------------+
; Parameter Name         ; Value     ; Type                       ;
+------------------------+-----------+----------------------------+
; LPM_WIDTH              ; 171       ; Signed Integer             ;
; LPM_DIRECTION          ; LEFT      ; Untyped                    ;
; LPM_AVALUE             ; UNUSED    ; Untyped                    ;
; LPM_SVALUE             ; UNUSED    ; Untyped                    ;
; DEVICE_FAMILY          ; Cyclone V ; Untyped                    ;
; AUTO_CARRY_CHAINS      ; ON        ; AUTO_CARRY                 ;
; IGNORE_CARRY_BUFFERS   ; OFF       ; IGNORE_CARRY               ;
; AUTO_CASCADE_CHAINS    ; ON        ; AUTO_CASCADE               ;
; IGNORE_CASCADE_BUFFERS ; OFF       ; IGNORE_CASCADE             ;
+------------------------+-----------+----------------------------+
Note: In order to hide this table in the UI and the text report file, please set the "Show Parameter Settings in Synthesis Report" option in "Analysis and Synthesis Settings -> More Settings" to "Off".


+-----------------------------------------------------------+
; Parameter Settings for User Entity Instance: LPM_FF:REG_R ;
+------------------------+-----------+----------------------+
; Parameter Name         ; Value     ; Type                 ;
+------------------------+-----------+----------------------+
; LPM_WIDTH              ; 475       ; Signed Integer       ;
; LPM_AVALUE             ; UNUSED    ; Untyped              ;
; LPM_SVALUE             ; UNUSED    ; Untyped              ;
; LPM_FFTYPE             ; DFF       ; Untyped              ;
; DEVICE_FAMILY          ; Cyclone V ; Untyped              ;
; CBXI_PARAMETER         ; NOTHING   ; Untyped              ;
; AUTO_CARRY_CHAINS      ; ON        ; AUTO_CARRY           ;
; IGNORE_CARRY_BUFFERS   ; OFF       ; IGNORE_CARRY         ;
; AUTO_CASCADE_CHAINS    ; ON        ; AUTO_CASCADE         ;
; IGNORE_CASCADE_BUFFERS ; OFF       ; IGNORE_CASCADE       ;
+------------------------+-----------+----------------------+
Note: In order to hide this table in the UI and the text report file, please set the "Show Parameter Settings in Synthesis Report" option in "Analysis and Synthesis Settings -> More Settings" to "Off".


+--------------------------------------------------------------+
; Parameter Settings for User Entity Instance: LPM_ADD_SUB:ALU ;
+------------------------+-------------+-----------------------+
; Parameter Name         ; Value       ; Type                  ;
+------------------------+-------------+-----------------------+
; LPM_WIDTH              ; 475         ; Signed Integer        ;
; LPM_REPRESENTATION     ; unsigned    ; Untyped               ;
; LPM_DIRECTION          ; DEFAULT     ; Untyped               ;
; ONE_INPUT_IS_CONSTANT  ; NO          ; Untyped               ;
; LPM_PIPELINE           ; 0           ; Signed Integer        ;
; MAXIMIZE_SPEED         ; 5           ; Untyped               ;
; REGISTERED_AT_END      ; 0           ; Untyped               ;
; OPTIMIZE_FOR_SPEED     ; 5           ; Untyped               ;
; USE_CS_BUFFERS         ; 1           ; Untyped               ;
; CARRY_CHAIN            ; MANUAL      ; Untyped               ;
; CARRY_CHAIN_LENGTH     ; 48          ; CARRY_CHAIN_LENGTH    ;
; DEVICE_FAMILY          ; Cyclone V   ; Untyped               ;
; USE_WYS                ; OFF         ; Untyped               ;
; STYLE                  ; FAST        ; Untyped               ;
; CBXI_PARAMETER         ; add_sub_tke ; Untyped               ;
; AUTO_CARRY_CHAINS      ; ON          ; AUTO_CARRY            ;
; IGNORE_CARRY_BUFFERS   ; OFF         ; IGNORE_CARRY          ;
; AUTO_CASCADE_CHAINS    ; ON          ; AUTO_CASCADE          ;
; IGNORE_CASCADE_BUFFERS ; OFF         ; IGNORE_CASCADE        ;
+------------------------+-------------+-----------------------+
Note: In order to hide this table in the UI and the text report file, please set the "Show Parameter Settings in Synthesis Report" option in "Analysis and Synthesis Settings -> More Settings" to "Off".


+---------------------------------------------------------------+
; Parameter Settings for User Entity Instance: LPM_ADD_SUB:ALU2 ;
+------------------------+-------------+------------------------+
; Parameter Name         ; Value       ; Type                   ;
+------------------------+-------------+------------------------+
; LPM_WIDTH              ; 478         ; Signed Integer         ;
; LPM_REPRESENTATION     ; unsigned    ; Untyped                ;
; LPM_DIRECTION          ; DEFAULT     ; Untyped                ;
; ONE_INPUT_IS_CONSTANT  ; NO          ; Untyped                ;
; LPM_PIPELINE           ; 0           ; Signed Integer         ;
; MAXIMIZE_SPEED         ; 5           ; Untyped                ;
; REGISTERED_AT_END      ; 0           ; Untyped                ;
; OPTIMIZE_FOR_SPEED     ; 5           ; Untyped                ;
; USE_CS_BUFFERS         ; 1           ; Untyped                ;
; CARRY_CHAIN            ; MANUAL      ; Untyped                ;
; CARRY_CHAIN_LENGTH     ; 48          ; CARRY_CHAIN_LENGTH     ;
; DEVICE_FAMILY          ; Cyclone V   ; Untyped                ;
; USE_WYS                ; OFF         ; Untyped                ;
; STYLE                  ; FAST        ; Untyped                ;
; CBXI_PARAMETER         ; add_sub_0le ; Untyped                ;
; AUTO_CARRY_CHAINS      ; ON          ; AUTO_CARRY             ;
; IGNORE_CARRY_BUFFERS   ; OFF         ; IGNORE_CARRY           ;
; AUTO_CASCADE_CHAINS    ; ON          ; AUTO_CASCADE           ;
; IGNORE_CASCADE_BUFFERS ; OFF         ; IGNORE_CASCADE         ;
+------------------------+-------------+------------------------+
Note: In order to hide this table in the UI and the text report file, please set the "Show Parameter Settings in Synthesis Report" option in "Analysis and Synthesis Settings -> More Settings" to "Off".


+---------------------------------------------------------------+
; Parameter Settings for User Entity Instance: LPM_ADD_SUB:ALU3 ;
+------------------------+-------------+------------------------+
; Parameter Name         ; Value       ; Type                   ;
+------------------------+-------------+------------------------+
; LPM_WIDTH              ; 478         ; Signed Integer         ;
; LPM_REPRESENTATION     ; unsigned    ; Untyped                ;
; LPM_DIRECTION          ; DEFAULT     ; Untyped                ;
; ONE_INPUT_IS_CONSTANT  ; NO          ; Untyped                ;
; LPM_PIPELINE           ; 0           ; Signed Integer         ;
; MAXIMIZE_SPEED         ; 5           ; Untyped                ;
; REGISTERED_AT_END      ; 0           ; Untyped                ;
; OPTIMIZE_FOR_SPEED     ; 5           ; Untyped                ;
; USE_CS_BUFFERS         ; 1           ; Untyped                ;
; CARRY_CHAIN            ; MANUAL      ; Untyped                ;
; CARRY_CHAIN_LENGTH     ; 48          ; CARRY_CHAIN_LENGTH     ;
; DEVICE_FAMILY          ; Cyclone V   ; Untyped                ;
; USE_WYS                ; OFF         ; Untyped                ;
; STYLE                  ; FAST        ; Untyped                ;
; CBXI_PARAMETER         ; add_sub_0le ; Untyped                ;
; AUTO_CARRY_CHAINS      ; ON          ; AUTO_CARRY             ;
; IGNORE_CARRY_BUFFERS   ; OFF         ; IGNORE_CARRY           ;
; AUTO_CASCADE_CHAINS    ; ON          ; AUTO_CASCADE           ;
; IGNORE_CASCADE_BUFFERS ; OFF         ; IGNORE_CASCADE         ;
+------------------------+-------------+------------------------+
Note: In order to hide this table in the UI and the text report file, please set the "Show Parameter Settings in Synthesis Report" option in "Analysis and Synthesis Settings -> More Settings" to "Off".


+---------------------------------------------------------------+
; Parameter Settings for User Entity Instance: LPM_ADD_SUB:ALU4 ;
+------------------------+-------------+------------------------+
; Parameter Name         ; Value       ; Type                   ;
+------------------------+-------------+------------------------+
; LPM_WIDTH              ; 478         ; Signed Integer         ;
; LPM_REPRESENTATION     ; unsigned    ; Untyped                ;
; LPM_DIRECTION          ; DEFAULT     ; Untyped                ;
; ONE_INPUT_IS_CONSTANT  ; NO          ; Untyped                ;
; LPM_PIPELINE           ; 0           ; Signed Integer         ;
; MAXIMIZE_SPEED         ; 5           ; Untyped                ;
; REGISTERED_AT_END      ; 0           ; Untyped                ;
; OPTIMIZE_FOR_SPEED     ; 5           ; Untyped                ;
; USE_CS_BUFFERS         ; 1           ; Untyped                ;
; CARRY_CHAIN            ; MANUAL      ; Untyped                ;
; CARRY_CHAIN_LENGTH     ; 48          ; CARRY_CHAIN_LENGTH     ;
; DEVICE_FAMILY          ; Cyclone V   ; Untyped                ;
; USE_WYS                ; OFF         ; Untyped                ;
; STYLE                  ; FAST        ; Untyped                ;
; CBXI_PARAMETER         ; add_sub_0le ; Untyped                ;
; AUTO_CARRY_CHAINS      ; ON          ; AUTO_CARRY             ;
; IGNORE_CARRY_BUFFERS   ; OFF         ; IGNORE_CARRY           ;
; AUTO_CASCADE_CHAINS    ; ON          ; AUTO_CASCADE           ;
; IGNORE_CASCADE_BUFFERS ; OFF         ; IGNORE_CASCADE         ;
+------------------------+-------------+------------------------+
Note: In order to hide this table in the UI and the text report file, please set the "Show Parameter Settings in Synthesis Report" option in "Analysis and Synthesis Settings -> More Settings" to "Off".


+---------------------------------------------------------------+
; Parameter Settings for User Entity Instance: LPM_ADD_SUB:ALU5 ;
+------------------------+-------------+------------------------+
; Parameter Name         ; Value       ; Type                   ;
+------------------------+-------------+------------------------+
; LPM_WIDTH              ; 478         ; Signed Integer         ;
; LPM_REPRESENTATION     ; unsigned    ; Untyped                ;
; LPM_DIRECTION          ; DEFAULT     ; Untyped                ;
; ONE_INPUT_IS_CONSTANT  ; NO          ; Untyped                ;
; LPM_PIPELINE           ; 0           ; Signed Integer         ;
; MAXIMIZE_SPEED         ; 5           ; Untyped                ;
; REGISTERED_AT_END      ; 0           ; Untyped                ;
; OPTIMIZE_FOR_SPEED     ; 5           ; Untyped                ;
; USE_CS_BUFFERS         ; 1           ; Untyped                ;
; CARRY_CHAIN            ; MANUAL      ; Untyped                ;
; CARRY_CHAIN_LENGTH     ; 48          ; CARRY_CHAIN_LENGTH     ;
; DEVICE_FAMILY          ; Cyclone V   ; Untyped                ;
; USE_WYS                ; OFF         ; Untyped                ;
; STYLE                  ; FAST        ; Untyped                ;
; CBXI_PARAMETER         ; add_sub_0le ; Untyped                ;
; AUTO_CARRY_CHAINS      ; ON          ; AUTO_CARRY             ;
; IGNORE_CARRY_BUFFERS   ; OFF         ; IGNORE_CARRY           ;
; AUTO_CASCADE_CHAINS    ; ON          ; AUTO_CASCADE           ;
; IGNORE_CASCADE_BUFFERS ; OFF         ; IGNORE_CASCADE         ;
+------------------------+-------------+------------------------+
Note: In order to hide this table in the UI and the text report file, please set the "Show Parameter Settings in Synthesis Report" option in "Analysis and Synthesis Settings -> More Settings" to "Off".


+---------------------------------------------------------------+
; Parameter Settings for User Entity Instance: LPM_ADD_SUB:ALU6 ;
+------------------------+-------------+------------------------+
; Parameter Name         ; Value       ; Type                   ;
+------------------------+-------------+------------------------+
; LPM_WIDTH              ; 475         ; Signed Integer         ;
; LPM_REPRESENTATION     ; unsigned    ; Untyped                ;
; LPM_DIRECTION          ; DEFAULT     ; Untyped                ;
; ONE_INPUT_IS_CONSTANT  ; NO          ; Untyped                ;
; LPM_PIPELINE           ; 0           ; Signed Integer         ;
; MAXIMIZE_SPEED         ; 5           ; Untyped                ;
; REGISTERED_AT_END      ; 0           ; Untyped                ;
; OPTIMIZE_FOR_SPEED     ; 5           ; Untyped                ;
; USE_CS_BUFFERS         ; 1           ; Untyped                ;
; CARRY_CHAIN            ; MANUAL      ; Untyped                ;
; CARRY_CHAIN_LENGTH     ; 48          ; CARRY_CHAIN_LENGTH     ;
; DEVICE_FAMILY          ; Cyclone V   ; Untyped                ;
; USE_WYS                ; OFF         ; Untyped                ;
; STYLE                  ; FAST        ; Untyped                ;
; CBXI_PARAMETER         ; add_sub_tke ; Untyped                ;
; AUTO_CARRY_CHAINS      ; ON          ; AUTO_CARRY             ;
; IGNORE_CARRY_BUFFERS   ; OFF         ; IGNORE_CARRY           ;
; AUTO_CASCADE_CHAINS    ; ON          ; AUTO_CASCADE           ;
; IGNORE_CASCADE_BUFFERS ; OFF         ; IGNORE_CASCADE         ;
+------------------------+-------------+------------------------+
Note: In order to hide this table in the UI and the text report file, please set the "Show Parameter Settings in Synthesis Report" option in "Analysis and Synthesis Settings -> More Settings" to "Off".


+---------------------------------------------------------------+
; Parameter Settings for User Entity Instance: LPM_ADD_SUB:ALU7 ;
+------------------------+-------------+------------------------+
; Parameter Name         ; Value       ; Type                   ;
+------------------------+-------------+------------------------+
; LPM_WIDTH              ; 475         ; Signed Integer         ;
; LPM_REPRESENTATION     ; unsigned    ; Untyped                ;
; LPM_DIRECTION          ; DEFAULT     ; Untyped                ;
; ONE_INPUT_IS_CONSTANT  ; NO          ; Untyped                ;
; LPM_PIPELINE           ; 0           ; Signed Integer         ;
; MAXIMIZE_SPEED         ; 5           ; Untyped                ;
; REGISTERED_AT_END      ; 0           ; Untyped                ;
; OPTIMIZE_FOR_SPEED     ; 5           ; Untyped                ;
; USE_CS_BUFFERS         ; 1           ; Untyped                ;
; CARRY_CHAIN            ; MANUAL      ; Untyped                ;
; CARRY_CHAIN_LENGTH     ; 48          ; CARRY_CHAIN_LENGTH     ;
; DEVICE_FAMILY          ; Cyclone V   ; Untyped                ;
; USE_WYS                ; OFF         ; Untyped                ;
; STYLE                  ; FAST        ; Untyped                ;
; CBXI_PARAMETER         ; add_sub_fcf ; Untyped                ;
; AUTO_CARRY_CHAINS      ; ON          ; AUTO_CARRY             ;
; IGNORE_CARRY_BUFFERS   ; OFF         ; IGNORE_CARRY           ;
; AUTO_CASCADE_CHAINS    ; ON          ; AUTO_CASCADE           ;
; IGNORE_CASCADE_BUFFERS ; OFF         ; IGNORE_CASCADE         ;
+------------------------+-------------+------------------------+
Note: In order to hide this table in the UI and the text report file, please set the "Show Parameter Settings in Synthesis Report" option in "Analysis and Synthesis Settings -> More Settings" to "Off".


+---------------------------------------------------------------+
; Parameter Settings for User Entity Instance: LPM_ADD_SUB:ALU8 ;
+------------------------+-------------+------------------------+
; Parameter Name         ; Value       ; Type                   ;
+------------------------+-------------+------------------------+
; LPM_WIDTH              ; 475         ; Signed Integer         ;
; LPM_REPRESENTATION     ; unsigned    ; Untyped                ;
; LPM_DIRECTION          ; DEFAULT     ; Untyped                ;
; ONE_INPUT_IS_CONSTANT  ; NO          ; Untyped                ;
; LPM_PIPELINE           ; 0           ; Signed Integer         ;
; MAXIMIZE_SPEED         ; 5           ; Untyped                ;
; REGISTERED_AT_END      ; 0           ; Untyped                ;
; OPTIMIZE_FOR_SPEED     ; 5           ; Untyped                ;
; USE_CS_BUFFERS         ; 1           ; Untyped                ;
; CARRY_CHAIN            ; MANUAL      ; Untyped                ;
; CARRY_CHAIN_LENGTH     ; 48          ; CARRY_CHAIN_LENGTH     ;
; DEVICE_FAMILY          ; Cyclone V   ; Untyped                ;
; USE_WYS                ; OFF         ; Untyped                ;
; STYLE                  ; FAST        ; Untyped                ;
; CBXI_PARAMETER         ; add_sub_tke ; Untyped                ;
; AUTO_CARRY_CHAINS      ; ON          ; AUTO_CARRY             ;
; IGNORE_CARRY_BUFFERS   ; OFF         ; IGNORE_CARRY           ;
; AUTO_CASCADE_CHAINS    ; ON          ; AUTO_CASCADE           ;
; IGNORE_CASCADE_BUFFERS ; OFF         ; IGNORE_CASCADE         ;
+------------------------+-------------+------------------------+
Note: In order to hide this table in the UI and the text report file, please set the "Show Parameter Settings in Synthesis Report" option in "Analysis and Synthesis Settings -> More Settings" to "Off".


+----------------------------------------------------+
; lpm_shiftreg Parameter Settings by Entity Instance ;
+----------------------------+-----------------------+
; Name                       ; Value                 ;
+----------------------------+-----------------------+
; Number of entity instances ; 1                     ;
; Entity Instance            ; LPM_SHIFTREG:REG_Q    ;
;     -- LPM_WIDTH           ; 171                   ;
;     -- LPM_DIRECTION       ; LEFT                  ;
+----------------------------+-----------------------+


+-----------------------------------------------------+
; Post-Synthesis Netlist Statistics for Top Partition ;
+-----------------------+-----------------------------+
; Type                  ; Count                       ;
+-----------------------+-----------------------------+
; arriav_ff             ; 2104                        ;
;     ENA SCLR          ; 171                         ;
;     SLD               ; 1933                        ;
; arriav_lcell_comb     ; 2902                        ;
;     arith             ; 1442                        ;
;         0 data inputs ; 10                          ;
;         1 data inputs ; 616                         ;
;         2 data inputs ; 816                         ;
;     normal            ; 1460                        ;
;         1 data inputs ; 1                           ;
;         2 data inputs ; 260                         ;
;         3 data inputs ; 1199                        ;
; boundary_port         ; 435                         ;
;                       ;                             ;
; Max LUT depth         ; 53.60                       ;
; Average LUT depth     ; 23.51                       ;
+-----------------------+-----------------------------+


+-------------------------------+
; Elapsed Time Per Partition    ;
+----------------+--------------+
; Partition Name ; Elapsed Time ;
+----------------+--------------+
; Top            ; 00:00:09     ;
+----------------+--------------+


+-------------------------------+
; Analysis & Synthesis Messages ;
+-------------------------------+
Info: *******************************************************************
Info: Running Quartus Prime Analysis & Synthesis
    Info: Version 18.1.0 Build 625 09/12/2018 SJ Lite Edition
    Info: Processing started: Mon Jul 20 09:30:22 2020
Info: Command: quartus_map --read_settings_files=on --write_settings_files=off Secuencial -c Secuencial
Warning (18236): Number of processors has not been specified which may cause overloading on shared machines.  Set the global assignment NUM_PARALLEL_PROCESSORS in your QSF to an appropriate value for best performance.
Info (20030): Parallel compilation is enabled and will use 8 of the 8 processors detected
Warning (12019): Can't analyze file -- file Secuencial.vhd is missing
Info (12021): Found 2 design units, including 1 entities, in source file main_processor.vhd
    Info (12022): Found design unit 1: main_processor-RTL File: D:/Uni/Monitoria/R3/Paper/Secuencial/main_processor.vhd Line: 27
    Info (12023): Found entity 1: main_processor File: D:/Uni/Monitoria/R3/Paper/Secuencial/main_processor.vhd Line: 7
Info (12021): Found 2 design units, including 1 entities, in source file main_processor_2.vhd
    Info (12022): Found design unit 1: main_processor_2-RTL File: D:/Uni/Monitoria/R3/Paper/Secuencial/main_processor_2.vhd Line: 19
    Info (12023): Found entity 1: main_processor_2 File: D:/Uni/Monitoria/R3/Paper/Secuencial/main_processor_2.vhd Line: 7
Info (12021): Found 2 design units, including 1 entities, in source file main_processor_3.vhd
    Info (12022): Found design unit 1: main_processor_3-RTL File: D:/Uni/Monitoria/R3/Paper/Secuencial/main_processor_3.vhd Line: 19
    Info (12023): Found entity 1: main_processor_3 File: D:/Uni/Monitoria/R3/Paper/Secuencial/main_processor_3.vhd Line: 7
Info (12021): Found 2 design units, including 1 entities, in source file main_processor_5.vhd
    Info (12022): Found design unit 1: main_processor_5-RTL File: D:/Uni/Monitoria/R3/Paper/Secuencial/main_processor_5.vhd Line: 24
    Info (12023): Found entity 1: main_processor_5 File: D:/Uni/Monitoria/R3/Paper/Secuencial/main_processor_5.vhd Line: 7
Info (12021): Found 2 design units, including 1 entities, in source file main_processor_4.vhd
    Info (12022): Found design unit 1: main_processor_4-RTL File: D:/Uni/Monitoria/R3/Paper/Secuencial/main_processor_4.vhd Line: 19
    Info (12023): Found entity 1: main_processor_4 File: D:/Uni/Monitoria/R3/Paper/Secuencial/main_processor_4.vhd Line: 7
Info (12021): Found 2 design units, including 1 entities, in source file main_processor_param.vhd
    Info (12022): Found design unit 1: main_processor_param-RTL File: D:/Uni/Monitoria/R3/Paper/Secuencial/main_processor_param.vhd Line: 23
    Info (12023): Found entity 1: main_processor_param File: D:/Uni/Monitoria/R3/Paper/Secuencial/main_processor_param.vhd Line: 7
Info (12021): Found 2 design units, including 1 entities, in source file statemachine.vhd
    Info (12022): Found design unit 1: StateMachine-rtl File: D:/Uni/Monitoria/R3/Paper/Secuencial/StateMachine.vhd Line: 26
    Info (12023): Found entity 1: StateMachine File: D:/Uni/Monitoria/R3/Paper/Secuencial/StateMachine.vhd Line: 13
Info (12021): Found 1 design units, including 1 entities, in source file secuencial.bdf
    Info (12023): Found entity 1: Secuencial
Info (12021): Found 2 design units, including 1 entities, in source file main_processor_min_param.vhd
    Info (12022): Found design unit 1: main_processor_min_param-RTL File: D:/Uni/Monitoria/R3/Paper/Secuencial/main_processor_min_param.vhd Line: 27
    Info (12023): Found entity 1: main_processor_min_param File: D:/Uni/Monitoria/R3/Paper/Secuencial/main_processor_min_param.vhd Line: 7
Info (12127): Elaborating entity "main_processor_5" for the top level hierarchy
Info (12128): Elaborating entity "LPM_FF" for hierarchy "LPM_FF:REG_w" File: D:/Uni/Monitoria/R3/Paper/Secuencial/main_processor_5.vhd Line: 98
Info (12130): Elaborated megafunction instantiation "LPM_FF:REG_w" File: D:/Uni/Monitoria/R3/Paper/Secuencial/main_processor_5.vhd Line: 98
Info (12133): Instantiated megafunction "LPM_FF:REG_w" with the following parameter: File: D:/Uni/Monitoria/R3/Paper/Secuencial/main_processor_5.vhd Line: 98
    Info (12134): Parameter "LPM_WIDTH" = "478"
    Info (12134): Parameter "LPM_AVALUE" = "UNUSED"
    Info (12134): Parameter "LPM_SVALUE" = "UNUSED"
    Info (12134): Parameter "LPM_PVALUE" = "UNUSED"
    Info (12134): Parameter "LPM_FFTYPE" = "DFF"
    Info (12134): Parameter "LPM_TYPE" = "LPM_FF"
    Info (12134): Parameter "LPM_HINT" = "UNUSED"
Info (12128): Elaborating entity "LPM_FF" for hierarchy "LPM_FF:REG_D" File: D:/Uni/Monitoria/R3/Paper/Secuencial/main_processor_5.vhd Line: 109
Info (12130): Elaborated megafunction instantiation "LPM_FF:REG_D" File: D:/Uni/Monitoria/R3/Paper/Secuencial/main_processor_5.vhd Line: 109
Info (12133): Instantiated megafunction "LPM_FF:REG_D" with the following parameter: File: D:/Uni/Monitoria/R3/Paper/Secuencial/main_processor_5.vhd Line: 109
    Info (12134): Parameter "LPM_WIDTH" = "510"
    Info (12134): Parameter "LPM_AVALUE" = "UNUSED"
    Info (12134): Parameter "LPM_SVALUE" = "UNUSED"
    Info (12134): Parameter "LPM_PVALUE" = "UNUSED"
    Info (12134): Parameter "LPM_FFTYPE" = "DFF"
    Info (12134): Parameter "LPM_TYPE" = "LPM_FF"
    Info (12134): Parameter "LPM_HINT" = "UNUSED"
Info (12128): Elaborating entity "LPM_FF" for hierarchy "LPM_FF:REG_S" File: D:/Uni/Monitoria/R3/Paper/Secuencial/main_processor_5.vhd Line: 121
Info (12130): Elaborated megafunction instantiation "LPM_FF:REG_S" File: D:/Uni/Monitoria/R3/Paper/Secuencial/main_processor_5.vhd Line: 121
Info (12133): Instantiated megafunction "LPM_FF:REG_S" with the following parameter: File: D:/Uni/Monitoria/R3/Paper/Secuencial/main_processor_5.vhd Line: 121
    Info (12134): Parameter "LPM_WIDTH" = "475"
    Info (12134): Parameter "LPM_AVALUE" = "UNUSED"
    Info (12134): Parameter "LPM_SVALUE" = "UNUSED"
    Info (12134): Parameter "LPM_PVALUE" = "UNUSED"
    Info (12134): Parameter "LPM_FFTYPE" = "DFF"
    Info (12134): Parameter "LPM_TYPE" = "LPM_FF"
    Info (12134): Parameter "LPM_HINT" = "UNUSED"
Info (12128): Elaborating entity "LPM_SHIFTREG" for hierarchy "LPM_SHIFTREG:REG_Q" File: D:/Uni/Monitoria/R3/Paper/Secuencial/main_processor_5.vhd Line: 132
Info (12130): Elaborated megafunction instantiation "LPM_SHIFTREG:REG_Q" File: D:/Uni/Monitoria/R3/Paper/Secuencial/main_processor_5.vhd Line: 132
Info (12133): Instantiated megafunction "LPM_SHIFTREG:REG_Q" with the following parameter: File: D:/Uni/Monitoria/R3/Paper/Secuencial/main_processor_5.vhd Line: 132
    Info (12134): Parameter "LPM_WIDTH" = "171"
    Info (12134): Parameter "LPM_AVALUE" = "UNUSED"
    Info (12134): Parameter "LPM_SVALUE" = "UNUSED"
    Info (12134): Parameter "LPM_PVALUE" = "UNUSED"
    Info (12134): Parameter "LPM_DIRECTION" = "UNUSED"
    Info (12134): Parameter "LPM_TYPE" = "LPM_SHIFTREG"
    Info (12134): Parameter "LPM_HINT" = "UNUSED"
Info (12128): Elaborating entity "LPM_ADD_SUB" for hierarchy "LPM_ADD_SUB:ALU" File: D:/Uni/Monitoria/R3/Paper/Secuencial/main_processor_5.vhd Line: 156
Info (12130): Elaborated megafunction instantiation "LPM_ADD_SUB:ALU" File: D:/Uni/Monitoria/R3/Paper/Secuencial/main_processor_5.vhd Line: 156
Info (12133): Instantiated megafunction "LPM_ADD_SUB:ALU" with the following parameter: File: D:/Uni/Monitoria/R3/Paper/Secuencial/main_processor_5.vhd Line: 156
    Info (12134): Parameter "LPM_WIDTH" = "475"
    Info (12134): Parameter "LPM_DIRECTION" = "UNUSED"
    Info (12134): Parameter "LPM_REPRESENTATION" = "unsigned"
    Info (12134): Parameter "LPM_PIPELINE" = "0"
    Info (12134): Parameter "LPM_TYPE" = "LPM_ADD_SUB"
    Info (12134): Parameter "LPM_HINT" = "UNUSED"
Info (12021): Found 1 design units, including 1 entities, in source file db/add_sub_tke.tdf
    Info (12023): Found entity 1: add_sub_tke File: D:/Uni/Monitoria/R3/Paper/Secuencial/db/add_sub_tke.tdf Line: 22
Info (12128): Elaborating entity "add_sub_tke" for hierarchy "LPM_ADD_SUB:ALU|add_sub_tke:auto_generated" File: d:/intelfpga/18.1/quartus/libraries/megafunctions/lpm_add_sub.tdf Line: 118
Info (12128): Elaborating entity "LPM_ADD_SUB" for hierarchy "LPM_ADD_SUB:ALU2" File: D:/Uni/Monitoria/R3/Paper/Secuencial/main_processor_5.vhd Line: 167
Info (12130): Elaborated megafunction instantiation "LPM_ADD_SUB:ALU2" File: D:/Uni/Monitoria/R3/Paper/Secuencial/main_processor_5.vhd Line: 167
Info (12133): Instantiated megafunction "LPM_ADD_SUB:ALU2" with the following parameter: File: D:/Uni/Monitoria/R3/Paper/Secuencial/main_processor_5.vhd Line: 167
    Info (12134): Parameter "LPM_WIDTH" = "478"
    Info (12134): Parameter "LPM_DIRECTION" = "UNUSED"
    Info (12134): Parameter "LPM_REPRESENTATION" = "unsigned"
    Info (12134): Parameter "LPM_PIPELINE" = "0"
    Info (12134): Parameter "LPM_TYPE" = "LPM_ADD_SUB"
    Info (12134): Parameter "LPM_HINT" = "UNUSED"
Info (12021): Found 1 design units, including 1 entities, in source file db/add_sub_0le.tdf
    Info (12023): Found entity 1: add_sub_0le File: D:/Uni/Monitoria/R3/Paper/Secuencial/db/add_sub_0le.tdf Line: 22
Info (12128): Elaborating entity "add_sub_0le" for hierarchy "LPM_ADD_SUB:ALU2|add_sub_0le:auto_generated" File: d:/intelfpga/18.1/quartus/libraries/megafunctions/lpm_add_sub.tdf Line: 118
Info (12128): Elaborating entity "LPM_ADD_SUB" for hierarchy "LPM_ADD_SUB:ALU3" File: D:/Uni/Monitoria/R3/Paper/Secuencial/main_processor_5.vhd Line: 178
Info (12130): Elaborated megafunction instantiation "LPM_ADD_SUB:ALU3" File: D:/Uni/Monitoria/R3/Paper/Secuencial/main_processor_5.vhd Line: 178
Info (12133): Instantiated megafunction "LPM_ADD_SUB:ALU3" with the following parameter: File: D:/Uni/Monitoria/R3/Paper/Secuencial/main_processor_5.vhd Line: 178
    Info (12134): Parameter "LPM_WIDTH" = "478"
    Info (12134): Parameter "LPM_DIRECTION" = "UNUSED"
    Info (12134): Parameter "LPM_REPRESENTATION" = "unsigned"
    Info (12134): Parameter "LPM_PIPELINE" = "0"
    Info (12134): Parameter "LPM_TYPE" = "LPM_ADD_SUB"
    Info (12134): Parameter "LPM_HINT" = "UNUSED"
Info (12128): Elaborating entity "LPM_ADD_SUB" for hierarchy "LPM_ADD_SUB:ALU4" File: D:/Uni/Monitoria/R3/Paper/Secuencial/main_processor_5.vhd Line: 189
Info (12130): Elaborated megafunction instantiation "LPM_ADD_SUB:ALU4" File: D:/Uni/Monitoria/R3/Paper/Secuencial/main_processor_5.vhd Line: 189
Info (12133): Instantiated megafunction "LPM_ADD_SUB:ALU4" with the following parameter: File: D:/Uni/Monitoria/R3/Paper/Secuencial/main_processor_5.vhd Line: 189
    Info (12134): Parameter "LPM_WIDTH" = "478"
    Info (12134): Parameter "LPM_DIRECTION" = "UNUSED"
    Info (12134): Parameter "LPM_REPRESENTATION" = "unsigned"
    Info (12134): Parameter "LPM_PIPELINE" = "0"
    Info (12134): Parameter "LPM_TYPE" = "LPM_ADD_SUB"
    Info (12134): Parameter "LPM_HINT" = "UNUSED"
Info (12128): Elaborating entity "LPM_ADD_SUB" for hierarchy "LPM_ADD_SUB:ALU6" File: D:/Uni/Monitoria/R3/Paper/Secuencial/main_processor_5.vhd Line: 211
Info (12130): Elaborated megafunction instantiation "LPM_ADD_SUB:ALU6" File: D:/Uni/Monitoria/R3/Paper/Secuencial/main_processor_5.vhd Line: 211
Info (12133): Instantiated megafunction "LPM_ADD_SUB:ALU6" with the following parameter: File: D:/Uni/Monitoria/R3/Paper/Secuencial/main_processor_5.vhd Line: 211
    Info (12134): Parameter "LPM_WIDTH" = "475"
    Info (12134): Parameter "LPM_DIRECTION" = "UNUSED"
    Info (12134): Parameter "LPM_REPRESENTATION" = "unsigned"
    Info (12134): Parameter "LPM_PIPELINE" = "0"
    Info (12134): Parameter "LPM_TYPE" = "LPM_ADD_SUB"
    Info (12134): Parameter "LPM_HINT" = "UNUSED"
Info (12128): Elaborating entity "LPM_ADD_SUB" for hierarchy "LPM_ADD_SUB:ALU7" File: D:/Uni/Monitoria/R3/Paper/Secuencial/main_processor_5.vhd Line: 222
Info (12130): Elaborated megafunction instantiation "LPM_ADD_SUB:ALU7" File: D:/Uni/Monitoria/R3/Paper/Secuencial/main_processor_5.vhd Line: 222
Info (12133): Instantiated megafunction "LPM_ADD_SUB:ALU7" with the following parameter: File: D:/Uni/Monitoria/R3/Paper/Secuencial/main_processor_5.vhd Line: 222
    Info (12134): Parameter "LPM_WIDTH" = "475"
    Info (12134): Parameter "LPM_DIRECTION" = "UNUSED"
    Info (12134): Parameter "LPM_REPRESENTATION" = "unsigned"
    Info (12134): Parameter "LPM_PIPELINE" = "0"
    Info (12134): Parameter "LPM_TYPE" = "LPM_ADD_SUB"
    Info (12134): Parameter "LPM_HINT" = "UNUSED"
Info (12021): Found 1 design units, including 1 entities, in source file db/add_sub_fcf.tdf
    Info (12023): Found entity 1: add_sub_fcf File: D:/Uni/Monitoria/R3/Paper/Secuencial/db/add_sub_fcf.tdf Line: 25
Info (12128): Elaborating entity "add_sub_fcf" for hierarchy "LPM_ADD_SUB:ALU7|add_sub_fcf:auto_generated" File: d:/intelfpga/18.1/quartus/libraries/megafunctions/lpm_add_sub.tdf Line: 118
Info (12128): Elaborating entity "LPM_ADD_SUB" for hierarchy "LPM_ADD_SUB:ALU8" File: D:/Uni/Monitoria/R3/Paper/Secuencial/main_processor_5.vhd Line: 234
Info (12130): Elaborated megafunction instantiation "LPM_ADD_SUB:ALU8" File: D:/Uni/Monitoria/R3/Paper/Secuencial/main_processor_5.vhd Line: 234
Info (12133): Instantiated megafunction "LPM_ADD_SUB:ALU8" with the following parameter: File: D:/Uni/Monitoria/R3/Paper/Secuencial/main_processor_5.vhd Line: 234
    Info (12134): Parameter "LPM_WIDTH" = "475"
    Info (12134): Parameter "LPM_DIRECTION" = "UNUSED"
    Info (12134): Parameter "LPM_REPRESENTATION" = "unsigned"
    Info (12134): Parameter "LPM_PIPELINE" = "0"
    Info (12134): Parameter "LPM_TYPE" = "LPM_ADD_SUB"
    Info (12134): Parameter "LPM_HINT" = "UNUSED"
Info (286030): Timing-Driven Synthesis is running
Info (17049): 1 registers lost all their fanouts during netlist optimizations.
Info (16010): Generating hard_block partition "hard_block:auto_generated_inst"
    Info (16011): Adding 0 node(s), including 0 DDIO, 0 PLL, 0 transceiver and 0 LCELL
Info (21057): Implemented 5440 device resources after synthesis - the final resource count might be different
    Info (21058): Implemented 264 input pins
    Info (21059): Implemented 171 output pins
    Info (21061): Implemented 5005 logic cells
Info: Quartus Prime Analysis & Synthesis was successful. 0 errors, 2 warnings
    Info: Peak virtual memory: 5025 megabytes
    Info: Processing ended: Mon Jul 20 09:31:10 2020
    Info: Elapsed time: 00:00:48
    Info: Total CPU time (on all processors): 00:01:26


